﻿<svg width="9" height="7" viewBox="0 0 9 7" fill="none" xmlns="http://www.w3.org/2000/svg">
<path fill-rule="evenodd" clip-rule="evenodd" d="M8.93719 1.48659L3.16504 6.68152L0 2.88348L1.53644 1.60311L3.37141 3.80507L7.59926 0L8.93719 1.48659Z" fill="white"/>
</svg>
