﻿<svg width="9" height="9" viewBox="0 0 9 9" fill="none" xmlns="http://www.w3.org/2000/svg">
<path d="M7.03125 1.96875L1.96875 7.03125" stroke="#696969" stroke-linecap="round" stroke-linejoin="round"/>
<path d="M7.03125 7.03125L1.96875 1.96875" stroke="#696969" stroke-linecap="round" stroke-linejoin="round"/>
</svg>
