﻿<svg width="16" height="17" viewBox="0 0 16 17" fill="none" xmlns="http://www.w3.org/2000/svg">
<path d="M5.33337 1.83398L1.33337 5.93798V11.1673L5.33337 15.1673H10.6667L14.6667 11.1673V5.93798L10.6667 1.83398H5.33337Z" stroke="white" stroke-linecap="round" stroke-linejoin="round"/>
<path d="M10.6667 8.5H5.33337" stroke="white" stroke-linecap="round"/>
</svg>
