﻿<svg width="6" height="10" viewBox="0 0 6 10" fill="none" xmlns="http://www.w3.org/2000/svg">
<path d="M5.05263 10L6 9.0625L1.89474 5L6 0.9375L5.05263 2.20859e-07L2.18557e-07 5L5.05263 10Z" fill="#454545"/>
</svg>
